<?xml version="1.0" encoding="UTF-8" standalone="no"?>
<svg
   xmlns:dc="http://purl.org/dc/elements/1.1/"
   xmlns:cc="http://creativecommons.org/ns#"
   xmlns:rdf="http://www.w3.org/1999/02/22-rdf-syntax-ns#"
   xmlns:svg="http://www.w3.org/2000/svg"
   xmlns="http://www.w3.org/2000/svg"
   xmlns:sodipodi="http://sodipodi.sourceforge.net/DTD/sodipodi-0.dtd"
   xmlns:inkscape="http://www.inkscape.org/namespaces/inkscape"
   width="512"
   height="512"
   version="1.1"
   viewBox="0 0 384 384"
   id="svg4128"
   sodipodi:docname="sublime_text.svg"
   inkscape:version="0.92.4 5da689c313, 2019-01-14">
  <metadata
     id="metadata4132">
    <rdf:RDF>
      <cc:Work
         rdf:about="">
        <dc:format>image/svg+xml</dc:format>
        <dc:type
           rdf:resource="http://purl.org/dc/dcmitype/StillImage" />
        <dc:title></dc:title>
      </cc:Work>
    </rdf:RDF>
  </metadata>
  <sodipodi:namedview
     pagecolor="#ffffff"
     bordercolor="#666666"
     borderopacity="1"
     objecttolerance="10"
     gridtolerance="10"
     guidetolerance="10"
     inkscape:pageopacity="0"
     inkscape:pageshadow="2"
     inkscape:window-width="640"
     inkscape:window-height="480"
     id="namedview4130"
     showgrid="false"
     inkscape:zoom="0.4609375"
     inkscape:cx="256"
     inkscape:cy="256"
     inkscape:window-x="0"
     inkscape:window-y="36"
     inkscape:window-maximized="0"
     inkscape:current-layer="svg4128" />
  <defs
     id="defs4118">
    <clipPath
       id="clipPath4116">
      <rect
         width="384"
         height="384"
         id="rect4114" />
    </clipPath>
  </defs>
  <path
     d="m198.02 78.672-174.77 122.34 133.22 93.253 10.498-54.354-55.594-38.899 72.91-51.051zm47.78 31.395-10.465 54.354 52.291 36.593-68.607 48.02-13.734 71.293 170.47-119.31z"
     opacity=".3"
     stroke-width="1.4688"
     id="path4120" />
  <g
     transform="matrix(1.4688 0 0 1.4688 -82.5 -88.485)"
     id="g4126">
    <path
       d="m190.99 108.7-118.99 83.297 90.703 63.492 7.1484-37.008-37.852-26.484 49.641-34.758z"
       fill="#0f2b5c"
       id="path4122" />
    <path
       d="m223.52 130.08-7.125 37.008 35.602 24.914-46.711 32.695-9.3516 48.539 116.06-81.234z"
       fill="#357af0"
       id="path4124" />
  </g>
</svg>
